{
    "data": [
        {
            "id": 1,
            "readable": true,
            "title": "Track 1",
            "title_short": "Track 1",
            "title_version": "",
            "link": "https://www.deezer.com/track/1",
            "duration": 150,
            "rank": 789,
            "explicit_lyrics": false,
            "explicit_content_lyrics": 0,
            "explicit_content_cover": 0,
            "preview": "https://www.deezer.com/track/1.mp3",
            "time_add": 123456789,
            "artist": {
                "id": 101,
                "name": "Artist 101",
                "link": "https://www.deezer.com/artist/101",
                "picture": "https://api.deezer.com/artist/101/image",
                "picture_small": "https://cdns-images.dzcdn.net/images/artist/101-small.jpg",
                "picture_medium": "https://cdns-images.dzcdn.net/images/artist/101-medium.jpg",
                "picture_big": "https://cdns-images.dzcdn.net/images/artist/101-big.jpg",
                "picture_xl": "https://cdns-images.dzcdn.net/images/artist/101-xl.jpg",
                "tracklist": "https://api.deezer.com/artist/101/top?limit=50",
                "type": "artist"
            },
            "album": {
                "id": 201,
                "title": "Album 201",
                "cover": "https://api.deezer.com/album/201/image",
                "cover_small": "https://cdns-images.dzcdn.net/images/cover/201-small.jpg",
                "cover_medium": "https://cdns-images.dzcdn.net/images/cover/201-medium.jpg",
                "cover_big": "https://cdns-images.dzcdn.net/images/cover/201-big.jpg",
                "cover_xl": "https://cdns-images.dzcdn.net/images/cover/201-xl.jpg",
                "tracklist": "https://api.deezer.com/album/201/tracks",
                "type": "album"
            },
            "type": "track"
        },
        {
            "id": 2,
            "readable": true,
            "title": "Track 2",
            "title_short": "Track 2",
            "title_version": "",
            "link": "https://www.deezer.com/track/2",
            "duration": 150,
            "rank": 789,
            "explicit_lyrics": false,
            "explicit_content_lyrics": 0,
            "explicit_content_cover": 0,
            "preview": "https://www.deezer.com/track/2.mp3",
            "time_add": 123456789,
            "artist": {
                "id": 101,
                "name": "Artist 101",
                "link": "https://www.deezer.com/artist/101",
                "picture": "https://api.deezer.com/artist/101/image",
                "picture_small": "https://cdns-images.dzcdn.net/images/artist/101-small.jpg",
                "picture_medium": "https://cdns-images.dzcdn.net/images/artist/101-medium.jpg",
                "picture_big": "https://cdns-images.dzcdn.net/images/artist/101-big.jpg",
                "picture_xl": "https://cdns-images.dzcdn.net/images/artist/101-xl.jpg",
                "tracklist": "https://api.deezer.com/artist/101/top?limit=50",
                "type": "artist"
            },
            "album": {
                "id": 201,
                "title": "Album 201",
                "cover": "https://api.deezer.com/album/201/image",
                "cover_small": "https://cdns-images.dzcdn.net/images/cover/201-small.jpg",
                "cover_medium": "https://cdns-images.dzcdn.net/images/cover/201-medium.jpg",
                "cover_big": "https://cdns-images.dzcdn.net/images/cover/201-big.jpg",
                "cover_xl": "https://cdns-images.dzcdn.net/images/cover/201-xl.jpg",
                "tracklist": "https://api.deezer.com/album/201/tracks",
                "type": "album"
            },
            "type": "track"
        },
        {
            "id": 3,
            "readable": true,
            "title": "Track 3",
            "title_short": "Track 3",
            "title_version": "",
            "link": "https://www.deezer.com/track/3",
            "duration": 150,
            "rank": 789,
            "explicit_lyrics": false,
            "explicit_content_lyrics": 0,
            "explicit_content_cover": 0,
            "preview": "https://www.deezer.com/track/3.mp3",
            "time_add": 123456789,
            "artist": {
                "id": 101,
                "name": "Artist 101",
                "link": "https://www.deezer.com/artist/101",
                "picture": "https://api.deezer.com/artist/101/image",
                "picture_small": "https://cdns-images.dzcdn.net/images/artist/101-small.jpg",
                "picture_medium": "https://cdns-images.dzcdn.net/images/artist/101-medium.jpg",
                "picture_big": "https://cdns-images.dzcdn.net/images/artist/101-big.jpg",
                "picture_xl": "https://cdns-images.dzcdn.net/images/artist/101-xl.jpg",
                "tracklist": "https://api.deezer.com/artist/101/top?limit=50",
                "type": "artist"
            },
            "album": {
                "id": 202,
                "title": "Album 202",
                "cover": "https://api.deezer.com/album/202/image",
                "cover_small": "https://cdns-images.dzcdn.net/images/cover/202-small.jpg",
                "cover_medium": "https://cdns-images.dzcdn.net/images/cover/202-medium.jpg",
                "cover_big": "https://cdns-images.dzcdn.net/images/cover/202-big.jpg",
                "cover_xl": "https://cdns-images.dzcdn.net/images/cover/202-xl.jpg",
                "tracklist": "https://api.deezer.com/album/202/tracks",
                "type": "album"
            },
            "type": "track"
        }
    ],
    "checksum": "1234567890abcdef",
    "total": 3
}
