@startuml

title
    Deezer Playlist History
    Simplified classes overview
end title

skinparam ClassBackgroundColor #FFB|#FFC
skinparam ClassBorderThickness 1
skinparam ClassFontSize 12
skinparam NoteBackgroundColor #FFA
skinparam NoteFontSize 12
skinparam Shadowing false
skinparam TitleBorderColor black

class DeezerPlaylistStore {
    PlaylistSnapshot load()
}

together {
    class PlaylistSnapshot {
        Integer playlistId
        Date takenAt
        String tracksHash()
    }

    class PlaylistSnapshotStore {
        Integer playlistId
        PlaylistSnapshot load(Date takenAt)
        void save(PlaylistSnapshot snapshot)
    }

    class PlaylistTrack {
        Integer trackId
        String trackTitle
        Integer artistId
        String artistName
        Integer albumId
        String albumTitle
    }
}

together {
    class PlaylistMetadata {
      -String metadataAsJSON
      void noChangeFrom(\n    PlaylistMetadata previous)
      void deltaBetween(\n    PlaylistMetadata previous,\n    PlaylistSnapshot current,\n    PlaylistSnapshot previous)
      ...()
    }

    class PlaylistMetadataStore {
        Integer playlistId
        PlaylistMetadata[] load()
        void save(PlaylistMetadata metadata)
    }

    class PlaylistMetadataSchema {
        void validate(Object data)
    }
}

together {
    class PlaylistHistory {
        Integer playlistId
        String email
        void run()
    }
    class PlaylistHistorySettings {
        +STORE_PREFIX
        +STORE_VERSION
    }
    class PlaylistMailer{
        String email
        void snapshotChanged(\n    PlaylistSnapshot previous,\n    PlaylistSnapshot current)
    }
}

DeezerPlaylistStore ..> PlaylistSnapshot : take

PlaylistSnapshotStore ..> PlaylistSnapshot : load
PlaylistSnapshotStore ..> PlaylistSnapshot : save
PlaylistSnapshot o--> "0..*" PlaylistTrack

PlaylistMetadataStore ..> PlaylistMetadata : load
PlaylistMetadataStore ..> PlaylistMetadata : save
PlaylistMetadata ..> PlaylistSnapshot : use
PlaylistMetadata ..> PlaylistMetadataSchema : validate with

PlaylistHistory ..> PlaylistHistorySettings : use
PlaylistHistory ..> PlaylistMailer

@enduml
